<meandata>
<interval begin="14400.0" end="16200.0">
<edge id="38245579#0" speed="33.33" length="282.91" avg_speed="29.526054768595134" min_speed="21.291182877958" max_speed="39.567640037011" stdev_speed="2.797774822320853" travelrate="0.5644844910918326" congestion_index="0.12883350861527443"/>
<edge id="123961236#12" speed="27.78" length="1039.48" avg_speed="27.38548050661864" min_speed="21.183548053756" max_speed="32.981550332531" stdev_speed="1.879955492592117" travelrate="0.6086071776601418" congestion_index="0.014406155600812267"/>
<edge id="123961236#9-AddedOffRampEdge" speed="27.78" length="102.37" avg_speed="27.419049689429983" min_speed="21.183615813541" max_speed="32.963647488444" stdev_speed="1.8595566143119902" travelrate="0.6078620589985332" congestion_index="0.013164216654422087"/>
<edge id="123961236#9" speed="27.78" length="1639.0199999999998" avg_speed="27.366492061591178" min_speed="21.173603442401" max_speed="32.983165263547" stdev_speed="1.8609804167996518" travelrate="0.609029464298499" congestion_index="0.01511000889256032"/>
<edge id="123961236#8" speed="27.78" length="1165.91" avg_speed="27.386311737547665" min_speed="21.171936438164" max_speed="32.978119918168" stdev_speed="1.829788495760143" travelrate="0.608588705179636" congestion_index="0.014375366286091477"/>
<edge id="123961236#1" speed="27.78" length="1969.4399999999998" avg_speed="27.514281105117515" min_speed="21.168092312828" max_speed="32.65975681891" stdev_speed="1.8082205230039896" travelrate="0.6057581492434496" congestion_index="0.009657490009181464"/>
<edge id="123961236#1-AddedOnRampEdge" speed="27.78" length="92.08" avg_speed="27.347698799263696" min_speed="20.492112811417" max_speed="32.654468371135" stdev_speed="1.8354241598135097" travelrate="0.6094479876474558" congestion_index="0.015807589658986095"/>
<edge id="325686453#8" speed="27.78" length="1958.8" avg_speed="27.51434738168989" min_speed="21.167245465162" max_speed="32.89648621821" stdev_speed="1.73330990937697" travelrate="0.6057566900929466" congestion_index="0.009655057945764657"/>
<edge id="325686453#4" speed="27.78" length="214.9" avg_speed="27.440749184622923" min_speed="21.174111669542" max_speed="32.57460565259" stdev_speed="1.6911300380354122" travelrate="0.6073813760646065" congestion_index="0.012363030363878912"/>
<edge id="325686453#1" speed="27.78" length="932.83" avg_speed="27.39784682859184" min_speed="21.180241446191" max_speed="32.661595937193" stdev_speed="1.7818653412740624" travelrate="0.6083324760618289" congestion_index="0.013948292134013694"/>
<edge id=":26941093_0" speed="27.78" length="6.57" avg_speed="27.971363407700053" min_speed="26.550289883218" max_speed="30.178505076304" stdev_speed="0.9817317737474438" travelrate="0.5958594065318908" congestion_index="-0.0068414043645570926"/>
<edge id="4258460" speed="27.78" length="789.63" avg_speed="27.270839715901722" min_speed="21.168819459154" max_speed="32.981592839585" stdev_speed="1.9529500759906695" travelrate="0.6111656323615666" congestion_index="0.01867050261020704"/>
<edge id="123961236#6" speed="27.78" length="204.39" avg_speed="27.438740296560386" min_speed="21.180120723428" max_speed="32.657283147362" stdev_speed="1.8645505345283082" travelrate="0.6074258446219308" congestion_index="0.012437149072852803"/>
<edge id="327268097#1" speed="27.78" length="1012.56" avg_speed="27.3609244164951" min_speed="21.858899347206" max_speed="33.340221391543" stdev_speed="1.8286568233328622" travelrate="0.6091533950494726" congestion_index="0.015316572537010196"/>
<edge id="321279636#2" speed="27.78" length="364.91" avg_speed="27.442057741251006" min_speed="21.86175441805" max_speed="32.400297472055" stdev_speed="1.6970570859101874" travelrate="0.6073524134797699" congestion_index="0.012314756492950656"/>
<edge id="123961229#1" speed="27.78" length="1247.46" avg_speed="27.271176290051596" min_speed="19.358012804157" max_speed="32.404675676993" stdev_speed="1.9133225285399595" travelrate="0.6111580895056605" congestion_index="0.018657930429426477"/>
<edge id="321279636#5" speed="27.78" length="1513.89" avg_speed="27.363974537605618" min_speed="21.859280445971" max_speed="33.312579913574" stdev_speed="1.7695712443019658" travelrate="0.6090854958622683" congestion_index="0.015203400435220085"/>
<edge id="123965879#4" speed="27.78" length="1742.82" avg_speed="27.33097598192261" min_speed="19.357850777461" max_speed="32.405227631503" stdev_speed="1.7979091401238925" travelrate="0.6098208864192765" congestion_index="0.016429124901151993"/>
<edge id="123965879#1" speed="27.78" length="1469.71" avg_speed="27.433038165211034" min_speed="19.360034294518" max_speed="32.4016400885" stdev_speed="1.8243710530736392" travelrate="0.6075521019445856" congestion_index="0.01264759056942382"/>
<edge id="123965879#0" speed="27.78" length="668.1" avg_speed="27.492586291835146" min_speed="19.358117555171" max_speed="32.407071733621" stdev_speed="1.822299930407839" travelrate="0.6062361621085401" congestion_index="0.010454225917996496"/>
<edge id="123967236#1-AddedOffRampEdge" speed="27.78" length="92.0" avg_speed="27.502239704980497" min_speed="19.369925203447" max_speed="32.382147817865" stdev_speed="1.7853775318919196" travelrate="0.6060233704159631" congestion_index="0.010099551818290845"/>
<edge id=":243043918_0" speed="27.78" length="8.03" avg_speed="27.644765287602603" min_speed="22.388557004667" max_speed="31.302786576122" stdev_speed="1.4970723093569507" travelrate="0.6028989512699672" congestion_index="0.004891874139298566"/>
<edge id="123967236#0" speed="27.78" length="914.87" avg_speed="27.616038692987168" min_speed="19.360148349456" max_speed="32.399077635689" stdev_speed="1.7764282137387168" travelrate="0.6035260952988318" congestion_index="0.005937176900554794"/>
<edge id="40388800" speed="27.78" length="315.41" avg_speed="27.749018467233878" min_speed="19.368161104301" max_speed="38.315352147794" stdev_speed="1.9922992549562402" travelrate="0.6006338573625747" congestion_index="0.0011164911221168384"/>
<edge id="32015714#0-AddedOffRampEdge" speed="33.33" length="92.0" avg_speed="30.22680231631919" min_speed="23.305082237403" max_speed="38.852752404129" stdev_speed="3.160859466035681" travelrate="0.5513980547985928" congestion_index="0.10266377671069155"/>
<edge id="123961229#1-AddedOffRampEdge" speed="27.78" length="92.07" avg_speed="27.273628908759196" min_speed="19.360050737691" max_speed="32.397565396768" stdev_speed="1.9508464547241169" travelrate="0.6111031302712793" congestion_index="0.01856632620964412"/>
<edge id="123967236#1" speed="27.78" length="1749.32" avg_speed="27.52285343093506" min_speed="19.357760403345" max_speed="32.406897372662" stdev_speed="1.7879213853891194" travelrate="0.6055694785362142" congestion_index="0.00934301996376267"/>
<edge id="123962130.2472" speed="27.78" length="817.9500000000002" avg_speed="27.13116626518993" min_speed="21.172057471144" max_speed="32.569397640892" stdev_speed="1.771632681068022" travelrate="0.614311962747589" congestion_index="0.023914701213657248"/>
<edge id="32015714#0" speed="33.33" length="2183.56" avg_speed="30.191340248648054" min_speed="23.251617663002" max_speed="38.880701823993" stdev_speed="3.1797778082698214" travelrate="0.55204571452393" congestion_index="0.10395894072614054"/>
<edge id="123961236#9-AddedOnRampEdge" speed="27.78" length="91.98" avg_speed="27.397930994989125" min_speed="21.212911056016" max_speed="32.936791099891" stdev_speed="1.8195153056852582" travelrate="0.6083306072655" congestion_index="0.013945177286589816"/>
<edge id="325686453#1-AddedOnRampEdge" speed="27.78" length="93.26" avg_speed="27.266993055004797" min_speed="21.214399051372" max_speed="32.629216506861" stdev_speed="1.9038789514260297" travelrate="0.6112518518774043" congestion_index="0.018814210425048775"/>
<edge id="123967236#1-AddedOnRampEdge" speed="27.78" length="91.99" avg_speed="27.54319907509494" min_speed="19.367015594964" max_speed="32.377343646933" stdev_speed="1.7970915159803078" travelrate="0.6051221557292017" congestion_index="0.00859743722068882"/>
<edge id="38245579#1-AddedOnRampEdge" speed="33.33" length="92.21" avg_speed="29.82648613583661" min_speed="21.03176625602" max_speed="39.559686404891" stdev_speed="3.0181679121476206" travelrate="0.5587986437321073" congestion_index="0.11746317847189866"/>
<edge id=":17955717_0" speed="27.78" length="8.35" avg_speed="27.493591949345625" min_speed="21.204682325093" max_speed="30.164436862637" stdev_speed="1.6993325694446137" travelrate="0.6062139872704663" congestion_index="0.010417265637100404"/>
<edge id="123961236#1-AddedOffRampEdge" speed="27.78" length="92.04" avg_speed="27.49199496512943" min_speed="21.184073316656" max_speed="32.644305794188" stdev_speed="1.8410303925949905" travelrate="0.6062492016727145" congestion_index="0.010475959828883854"/>
<edge id="325686453#5-AddedOnRampEdge" speed="27.78" length="92.02" avg_speed="27.308560740579836" min_speed="20.818573443481" max_speed="32.660664567242" stdev_speed="1.8029301082337104" travelrate="0.6103214357698924" congestion_index="0.017263423872779144"/>
<edge id="32015714#1" speed="33.33" length="360.46" avg_speed="30.075596144005655" min_speed="23.259974600658" max_speed="38.874742612275" stdev_speed="3.1594517635258037" travelrate="0.5541702289190331" congestion_index="0.1082074596430892"/>
<edge id="321265666#1" speed="27.78" length="115.73" avg_speed="27.266107982818937" min_speed="19.361344283407" max_speed="32.406927260389" stdev_speed="1.9454882477159565" travelrate="0.6112716934335586" congestion_index="0.018847281669422015"/>
<edge id=":123961236#9-AddedOnRampNode_0" speed="27.78" length="8.2" avg_speed="27.04281272889172" min_speed="21.236359999428" max_speed="29.739996689617" stdev_speed="1.821824056341749" travelrate="0.6163190259493047" congestion_index="0.02726000725215589"/>
<edge id="38245579#1" speed="33.33" length="2252.99" avg_speed="30.13648381000751" min_speed="25.424484375545" max_speed="39.573731147582" stdev_speed="3.2481345825565073" travelrate="0.5530505849678902" congestion_index="0.10596844044997726"/>
<edge id="325686453#5" speed="27.78" length="100.43" avg_speed="27.472476167549367" min_speed="21.187034036747" max_speed="32.648903437376" stdev_speed="1.712807190149216" travelrate="0.6066799329755048" congestion_index="0.011193888405803192"/>
<edge id=":300290445_1" speed="27.78" length="8.0" avg_speed="27.32978383276139" min_speed="24.145512258939" max_speed="31.050576928377" stdev_speed="1.4232217568571481" travelrate="0.6098474873416507" congestion_index="0.01647346243181476"/>
<edge id=":2801380637_0" speed="27.78" length="8.4" avg_speed="26.81107675807616" min_speed="19.458191407933" max_speed="29.88322851976" stdev_speed="2.173370105434063" travelrate="0.6216460513835755" congestion_index="0.03613891566783029"/>
<edge id="123961236#7-AddedOnRampEdge" speed="27.78" length="92.09" avg_speed="27.32389474374021" min_speed="21.188371487263" max_speed="32.639434712578" stdev_speed="2.0289293446411016" travelrate="0.6099789271007326" congestion_index="0.016692541840664186"/>
<edge id="325686453#1-AddedOffRampEdge" speed="27.78" length="92.01" avg_speed="27.489000212396295" min_speed="21.198520657461" max_speed="32.653231228928" stdev_speed="1.7307219937020808" travelrate="0.6063152486893262" congestion_index="0.010586044794473138"/>
<edge id=":12659312_1" speed="27.78" length="5.94" avg_speed="27.166531585482968" min_speed="23.209408269819" max_speed="29.975371759428" stdev_speed="1.5026845021778164" travelrate="0.6135122530292523" congestion_index="0.022581771713723425"/>
<edge id="321265666#2-AddedOnRampEdge" speed="27.78" length="92.21" avg_speed="27.230788945399695" min_speed="19.463630333958" max_speed="32.340385092455" stdev_speed="1.9281026326344899" travelrate="0.6120645286267289" congestion_index="0.020168752939972657"/>
<edge id="321279636#2-AddedOffRampEdge" speed="27.78" length="91.62" avg_speed="27.43654138554052" min_speed="21.887205913751" max_speed="32.396084022806" stdev_speed="1.6869908443236992" travelrate="0.6074745269745905" congestion_index="0.012518291195423348"/>
<edge id="123965879#1-AddedOnRampEdge" speed="27.78" length="91.77" avg_speed="27.30594629425372" min_speed="19.376535535974" max_speed="32.397869029592" stdev_speed="1.8392342105031168" travelrate="0.6103798718562418" congestion_index="0.017360823193519646"/>
<edge id="123969747-AddedOnRampEdge" speed="27.78" length="86.13" avg_speed="27.62857169942957" min_speed="19.405051847054" max_speed="32.387619284817" stdev_speed="1.7859252438528344" travelrate="0.603252320869852" congestion_index="0.005480858808693217"/>
<edge id="325686453#5-AddedOffRampEdge" speed="27.78" length="91.9" avg_speed="27.50843985716786" min_speed="21.169271987515" max_speed="32.653596680719" stdev_speed="1.7125275352186209" travelrate="0.6058867782593308" congestion_index="0.009871884564961261"/>
<edge id="123961236#7" speed="27.78" length="524.07" avg_speed="27.377309784006602" min_speed="21.168515624927" max_speed="32.978782457604" stdev_speed="1.887967877990666" travelrate="0.6087888156832927" congestion_index="0.01470890380283629"/>
<edge id="321265666#2" speed="27.78" length="90.21999999999998" avg_speed="27.355048511931027" min_speed="19.426154887674" max_speed="32.38822305751" stdev_speed="1.7665939988566692" travelrate="0.6092842420926659" congestion_index="0.015534664026774744"/>
<edge id=":386703_1" speed="33.33" length="7.6" avg_speed="29.744819913227413" min_speed="27.552036937596" max_speed="38.184448162113" stdev_speed="3.0348072852062935" travelrate="0.560332859591066" congestion_index="0.12053124198537392"/>
<edge id=":1003605669_1" speed="27.78" length="8.73" avg_speed="27.650456971408467" min_speed="22.351682758964" max_speed="32.211086223076" stdev_speed="1.855956324661423" travelrate="0.6027748480697537" congestion_index="0.004685023062204138"/>
<edge id=":243049815_1" speed="27.78" length="8.2" avg_speed="27.186401725717438" min_speed="19.413666893549" max_speed="29.656098969128" stdev_speed="1.8388631275088299" travelrate="0.613063845968022" congestion_index="0.02183438177186361"/>
<edge id="123969747" speed="27.78" length="788.86" avg_speed="27.614310944275914" min_speed="19.359538918678" max_speed="32.398351167305" stdev_speed="1.7920510346879632" travelrate="0.6035638562060465" congestion_index="0.00600011552192776"/>
<edge id="321279636#3" speed="27.78" length="37.53" avg_speed="27.433096722367655" min_speed="21.872414527127" max_speed="32.308275200031" stdev_speed="1.6598080736132175" travelrate="0.6075508050977896" congestion_index="0.012645429028415183"/>
<edge id="327268097#1-AddedOnRampEdge" speed="27.78" length="92.33" avg_speed="27.415446785109168" min_speed="21.912142497505" max_speed="33.303484804387" stdev_speed="1.831104103702177" travelrate="0.6079419434832177" congestion_index="0.013297365450518272"/>
<edge id="321279636#4-AddedOnRampEdge" speed="27.78" length="91.84" avg_speed="26.664315756059537" min_speed="11.645120922264" max_speed="32.404983380225" stdev_speed="3.275694340693936" travelrate="0.6250676054273915" congestion_index="0.041841847889418325"/>
<edge id=":2801380602_1" speed="27.78" length="8.6" avg_speed="27.197497773620576" min_speed="22.654822756535" max_speed="31.824298097284" stdev_speed="1.724953407145715" travelrate="0.6128137278924856" congestion_index="0.021417493301328947"/>
<edge id="321265666#2-AddedOffRampEdge" speed="27.78" length="91.98" avg_speed="27.39988951478352" min_speed="21.898218522192" max_speed="32.329231738616" stdev_speed="1.7300098789538239" travelrate="0.6082871243333801" congestion_index="0.01387270138485026"/>
<edge id="123961236#13-AddedOnRampEdge" speed="27.78" length="92.01" avg_speed="27.330026596347" min_speed="21.209255820726" max_speed="32.968798530136" stdev_speed="1.965011633303489" travelrate="0.6098420702681554" congestion_index="0.016464433434292672"/>
<edge id="325686453#6" speed="27.78" length="203.5" avg_speed="27.49895668461697" min_speed="21.185233258464" max_speed="32.612251309275" stdev_speed="1.7263885870415756" travelrate="0.606095721781459" congestion_index="0.010220144662442705"/>
<edge id=":123962130-AddedOffRampNode_0" speed="27.78" length="8.2" avg_speed="27.249873850699124" min_speed="21.248579842917" max_speed="29.764351480413" stdev_speed="1.6293862396950651" travelrate="0.6116358589884772" congestion_index="0.0194542606767803"/>
<edge id="123962130-AddedOffRampEdge" speed="27.78" length="91.98" avg_speed="27.389392770646218" min_speed="21.205975020219" max_speed="32.621287378127" stdev_speed="1.805519148471579" travelrate="0.608520245029396" congestion_index="0.014261259189813183"/>
<edge id="321279636#4" speed="27.78" length="605.29" avg_speed="27.413691980996294" min_speed="21.560843061692" max_speed="32.406535433924" stdev_speed="1.6850627820917408" travelrate="0.6079808590376623" congestion_index="0.013362228599403494"/>
<edge id="321279636#1" speed="27.78" length="27.11" avg_speed="27.437338039773213" min_speed="21.91836613608" max_speed="32.293920262961" stdev_speed="1.8059236316701044" travelrate="0.6074568887054382" congestion_index="0.012488892316377936"/>
<edge id=":123961236#7-AddedOnRampNode_0" speed="27.78" length="8.2" avg_speed="27.465827740632765" min_speed="23.380598362814" max_speed="31.69877561445" stdev_speed="1.6799211215525152" travelrate="0.60682678699477" congestion_index="0.011438659789686785"/>
<edge id=":2801380497_1" speed="27.78" length="8.26" avg_speed="27.50816083951318" min_speed="24.05413951103" max_speed="30.55171984893" stdev_speed="1.455183348257996" travelrate="0.6058929238213281" congestion_index="0.009882127782834165"/>
<edge id="123961236#13" speed="27.78" length="309.07" avg_speed="27.30761927124607" min_speed="21.177209588288" max_speed="32.967812612557" stdev_speed="1.9056151915848125" travelrate="0.6103424774765974" congestion_index="0.017298495488082592"/>
<edge id=":123961236#1-AddedOffRampNode_0" speed="27.78" length="8.2" avg_speed="27.29555047538865" min_speed="21.209425936601" max_speed="31.617241918965" stdev_speed="1.9647122878681245" travelrate="0.6106123419283299" congestion_index="0.01774829656020893"/>
<edge id="321279636#2-AddedOnRampEdge" speed="27.78" length="91.78" avg_speed="27.279559456392693" min_speed="20.847613164625" max_speed="32.39948278618" stdev_speed="1.8840583595282212" travelrate="0.6109702770912694" congestion_index="0.018344890957908585"/>
<edge id="123962072" speed="27.78" length="548.43" avg_speed="27.36763362791354" min_speed="21.172273979242" max_speed="32.654546111364" stdev_speed="1.8163218366459175" travelrate="0.609004060292613" congestion_index="0.015067666342400548"/>
<edge id=":280828409_1" speed="27.78" length="8.01" avg_speed="27.416121733924303" min_speed="23.882966697994" max_speed="32.599912011766" stdev_speed="1.6838549547069837" travelrate="0.6079269767531161" congestion_index="0.013272419403705814"/>
<edge id="325686453#6-AddedOffRampEdge" speed="27.78" length="92.0" avg_speed="27.479620077636966" min_speed="21.171416795604" max_speed="32.627679501889" stdev_speed="1.7498748740870838" travelrate="0.6065222136591211" congestion_index="0.01093100710688082"/>
<edge id=":123965879#4-AddedOffRampNode_0" speed="27.78" length="8.2" avg_speed="27.600912136622174" min_speed="24.788835095847" max_speed="31.266428221114" stdev_speed="1.311866007826936" travelrate="0.6038568550742006" congestion_index="0.006488476268152335"/>
<edge id="123965879#4-AddedOffRampEdge" speed="27.78" length="92.15" avg_speed="27.30895642102471" min_speed="19.361202353412" max_speed="31.266436991275" stdev_speed="1.7738823112648847" travelrate="0.610312592800813" congestion_index="0.017248684706700972"/>
<edge id="325686453#8-AddedOffRampEdge" speed="27.78" length="91.96" avg_speed="27.46925110309115" min_speed="21.210086651846" max_speed="32.568719381749" stdev_speed="1.748393316789679" travelrate="0.6067511610509266" congestion_index="0.01131260898750472"/>
<edge id="325686453#7" speed="27.78" length="470.7" avg_speed="27.504726066062762" min_speed="21.173337960796" max_speed="32.663095071651" stdev_speed="1.7320323401831443" travelrate="0.6059685873608791" congestion_index="0.010008241248288295"/>
<edge id=":325686453#5-AddedOffRampNode_0" speed="27.78" length="8.2" avg_speed="27.069214800846463" min_speed="21.246062004963" max_speed="30.149809901478" stdev_speed="1.7466669881717747" travelrate="0.6157178966077295" congestion_index="0.026258064904465372"/>
<edge id="123961229#0" speed="27.78" length="167.5" avg_speed="27.35322735863662" min_speed="19.358640420423" max_speed="32.391233346327" stdev_speed="1.8226830595944454" travelrate="0.6093248076899231" congestion_index="0.015602277412015532"/>
<edge id=":123961236#7-AddedOffRampNode_0" speed="27.78" length="8.2" avg_speed="27.21866625224903" min_speed="22.664952434272" max_speed="30.988358908993" stdev_speed="1.7774543100133537" travelrate="0.6123371309063624" congestion_index="0.020623117332378257"/>
<edge id=":246635797_1" speed="27.78" length="8.02" avg_speed="27.24799276231435" min_speed="22.374301052319" max_speed="31.266439593971" stdev_speed="2.147801244141811" travelrate="0.6116780837908724" congestion_index="0.019524639569834613"/>
<edge id="123961236#13-AddedOffRampEdge" speed="27.78" length="92.03" avg_speed="27.335452617983574" min_speed="21.186753010807" max_speed="32.967496229133" stdev_speed="1.9490653889352267" travelrate="0.6097210180831262" congestion_index="0.016262667687600818"/>
<edge id="123961236#0" speed="27.78" length="185.39" avg_speed="27.494255009607514" min_speed="21.176773509214" max_speed="32.659351879538" stdev_speed="1.739405985904961" travelrate="0.6061993676197421" congestion_index="0.010392898090624264"/>
<edge id="123961236#7-AddedOffRampEdge" speed="27.78" length="91.88" avg_speed="27.351300919987583" min_speed="21.210751326477" max_speed="32.962093230599" stdev_speed="1.8506009918700488" travelrate="0.6093677243637144" congestion_index="0.015673809493249268"/>
<edge id="123965879#1-AddedOffRampEdge" speed="27.78" length="92.07" avg_speed="27.387845394017756" min_speed="19.368874805316" max_speed="32.292749316986" stdev_speed="1.8212646229196905" travelrate="0.6085546256092319" congestion_index="0.014318563594195812"/>
<edge id=":123961229#1-AddedOffRampNode_0" speed="27.78" length="8.2" avg_speed="27.38709611504405" min_speed="21.911286305386" max_speed="30.65997075466" stdev_speed="1.6539616414422396" travelrate="0.6085712749532662" congestion_index="0.014346314165820962"/>
<edge id="123961229#1-AddedOnRampEdge" speed="27.78" length="92.05" avg_speed="27.363076835380006" min_speed="19.397185995931" max_speed="32.39225213303" stdev_speed="1.8448752952862375" travelrate="0.6091054781693938" congestion_index="0.01523670627861994"/>
<edge id=":321279636#2-AddedOffRampNode_0" speed="27.78" length="8.2" avg_speed="27.581174105560414" min_speed="21.926891927618" max_speed="32.127563396762" stdev_speed="1.8435039325384766" travelrate="0.6042889956827439" congestion_index="0.0072087538289206665"/>
<edge id=":246635804_1" speed="27.78" length="8.0" avg_speed="27.104048948224374" min_speed="22.357963959737" max_speed="29.873977901552" stdev_speed="1.62879261737159" travelrate="0.6149265754293098" congestion_index="0.024939117143230754"/>
<edge id="123965879#3" speed="27.78" length="162.42" avg_speed="27.41214216877396" min_speed="19.364477199479" max_speed="32.401532936266" stdev_speed="1.8294077080667148" travelrate="0.6080152327163219" congestion_index="0.013419521501135293"/>
<edge id="123969747-AddedOffRampEdge" speed="27.78" length="96.01" avg_speed="27.60477033592528" min_speed="19.365832068858" max_speed="32.375333498167" stdev_speed="1.7918146215693453" travelrate="0.6037724566144753" congestion_index="0.006347803728932812"/>
<edge id="321279636#4-AddedOffRampEdge" speed="27.78" length="91.91" avg_speed="27.42337544617939" min_speed="21.887497752171" max_speed="32.396444240294" stdev_speed="1.6496755099710225" travelrate="0.6077661749812802" congestion_index="0.013004400370790094"/>
<edge id=":243050307_1" speed="27.78" length="8.06" avg_speed="27.448699626045748" min_speed="22.389861914408" max_speed="32.141633030542" stdev_speed="1.7448864620997422" travelrate="0.6072054496958712" congestion_index="0.012069802157035034"/>
<edge id=":277957166_0" speed="27.78" length="8.16" avg_speed="27.510297022466546" min_speed="21.272769281048" max_speed="31.821508233484" stdev_speed="2.026648327902296" travelrate="0.6058458760510197" congestion_index="0.00980371012763687"/>
<edge id=":123961229#1-AddedOnRampNode_0" speed="27.78" length="8.2" avg_speed="27.43981683824066" min_speed="19.388816967425" max_speed="31.266445751819" stdev_speed="1.8543188772181056" travelrate="0.607402013586787" congestion_index="0.012397428297890674"/>
<edge id=":322702830_1" speed="27.78" length="8.08" avg_speed="27.55810882289951" min_speed="23.259336269749" max_speed="32.154488125245" stdev_speed="1.632579065534265" travelrate="0.6047947668364855" congestion_index="0.008051756327927446"/>
<edge id="123965879#4-AddedOnRampEdge" speed="27.78" length="92.03" avg_speed="27.2334431346715" min_speed="19.364184471059" max_speed="32.28392948939" stdev_speed="1.936754000405871" travelrate="0.6120048764153833" congestion_index="0.020069326622628343"/>
<edge id=":123961236#9-AddedOffRampNode_0" speed="27.78" length="8.2" avg_speed="27.423738853573752" min_speed="22.686709041566" max_speed="32.968175756474" stdev_speed="2.0130889462919215" travelrate="0.6077581211297169" congestion_index="0.012990976479482611"/>
<edge id=":321279636#4-AddedOnRampNode_0" speed="27.78" length="8.2" avg_speed="27.538622629214963" min_speed="20.343567858079" max_speed="30.671854486121" stdev_speed="1.913585905106819" travelrate="0.6052227166335633" congestion_index="0.008765048783847646"/>
<edge id=":246635772_1" speed="27.78" length="8.11" avg_speed="27.163063518468963" min_speed="21.229743080164" max_speed="32.629205787727" stdev_speed="2.090618762712594" travelrate="0.6135905837229155" congestion_index="0.022712330702741455"/>
<edge id=":325686453#8-AddedOffRampNode_0" speed="27.78" length="8.2" avg_speed="27.56394970338022" min_speed="21.183720445087" max_speed="32.558916108711" stdev_speed="2.2572481448094055" travelrate="0.6046666090801963" congestion_index="0.007838147251926313"/>
<edge id="325686453#8-AddedOnRampEdge" speed="27.78" length="92.37" avg_speed="27.403942844256825" min_speed="21.172810779057" max_speed="32.595586092742" stdev_speed="1.8405530205342637" travelrate="0.6081971523120799" congestion_index="0.013722739018994401"/>
<edge id=":321265666#2-AddedOnRampNode_0" speed="27.78" length="8.2" avg_speed="27.32308436177012" min_speed="19.385879225911" max_speed="32.206266461832" stdev_speed="2.1628950698466514" travelrate="0.60999701861332" congestion_index="0.016722696170758382"/>
<edge id=":277956416_0" speed="27.78" length="8.38" avg_speed="27.524975184451755" min_speed="21.193614016025" max_speed="32.640503351982" stdev_speed="2.2955846068879877" travelrate="0.6055227984152668" congestion_index="0.00926521509426468"/>
<edge id=":321265666#2-AddedOffRampNode_0" speed="27.78" length="8.2" avg_speed="27.60253518444118" min_speed="21.956842094105" max_speed="32.189705586908" stdev_speed="1.9550327241023915" travelrate="0.6038213478809276" congestion_index="0.006429294062048838"/>
<edge id=":123961236#13-AddedOffRampNode_0" speed="27.78" length="8.59" avg_speed="27.066524385894624" min_speed="23.765189637505" max_speed="31.203739274655" stdev_speed="1.8830344674220785" travelrate="0.6157790990218824" congestion_index="0.02636007504817275"/>
<edge id=":322708830_1" speed="27.78" length="8.02" avg_speed="27.07294038827364" min_speed="21.171786821917" max_speed="31.045500260348" stdev_speed="1.9714122454199796" travelrate="0.6156331658462609" congestion_index="0.026116838495777867"/>
<edge id=":12659335_1" speed="27.78" length="8.87" avg_speed="27.585996012604188" min_speed="22.438912891096" max_speed="32.118476300903" stdev_speed="1.9048951897724353" travelrate="0.6041833687058014" congestion_index="0.0070326983048635125"/>
<edge id=":325686453#6-AddedOffRampNode_0" speed="27.78" length="8.2" avg_speed="27.698866622762793" min_speed="23.922487042021" max_speed="31.628153876978" stdev_speed="1.7118152523923542" travelrate="0.6017213710218432" congestion_index="0.0029291226367557286"/>
<edge id=":123965879#1-AddedOffRampNode_0" speed="27.78" length="8.2" avg_speed="27.739000413766348" min_speed="22.420848168262" max_speed="32.384672678749" stdev_speed="2.085026981436142" travelrate="0.600850778737091" congestion_index="0.0014780484380145596"/>
<edge id=":386567_1" speed="27.78" length="7.91" avg_speed="27.10621171452881" min_speed="22.651290550761" max_speed="31.58603491604" stdev_speed="1.7303802980700456" travelrate="0.6148775113073643" congestion_index="0.024857338700340893"/>
<edge id=":321279636#4-AddedOffRampNode_0" speed="27.78" length="8.2" avg_speed="27.67785608639476" min_speed="22.342342027693" max_speed="32.233531215759" stdev_speed="1.8374827005559569" travelrate="0.602178143710805" congestion_index="0.0036904561280473144"/>
<edge id=":325686453#1-AddedOnRampNode_0" speed="27.78" length="8.2" avg_speed="27.74159430996789" min_speed="22.683672093496" max_speed="32.64206048925" stdev_speed="1.747474475130949" travelrate="0.6007945979518324" congestion_index="0.0013844081779507168"/>
<edge id=":325686453#1-AddedOffRampNode_0" speed="27.78" length="8.2" avg_speed="27.635745535762034" min_speed="24.42656243182" max_speed="30.524439707101" stdev_speed="1.2382220431054058" travelrate="0.6030957253688731" congestion_index="0.005219850647824817"/>
<edge id=":123965879#4-AddedOnRampNode_0" speed="27.78" length="8.2" avg_speed="27.444225785121503" min_speed="23.212334183514" max_speed="31.307843203408" stdev_speed="1.5007796195769558" travelrate="0.6073044337448855" congestion_index="0.012234785470265803"/>
<edge id=":123967236#1-AddedOffRampNode_0" speed="27.78" length="8.2" avg_speed="27.61045674220687" min_speed="19.38241556474" max_speed="32.38655792438" stdev_speed="2.1217202951489877" travelrate="0.6036481089616277" congestion_index="0.006140545206336932"/>
<edge id=":123967236#1-AddedOnRampNode_0" speed="27.78" length="8.2" avg_speed="27.70970189909266" min_speed="23.250851978521" max_speed="31.067841456435" stdev_speed="1.67006411331618" travelrate="0.6014860809652288" congestion_index="0.0025369490138631035"/>
<edge id=":123961236#13-AddedOnRampNode_0" speed="27.78" length="8.2" avg_speed="27.36973090585218" min_speed="21.258863922391" max_speed="29.710071773497" stdev_speed="1.8071519514844567" travelrate="0.6089573937475679" congestion_index="0.014989884100764048"/>
<edge id=":325686453#8-AddedOnRampNode_0" speed="27.78" length="8.2" avg_speed="27.804202477990565" min_speed="24.458226759763" max_speed="32.420124313929" stdev_speed="1.81042441069124" travelrate="0.5994417575254452" congestion_index="-0.0008704611473650856"/>
<edge id=":321279636#2-AddedOnRampNode_0" speed="27.78" length="8.2" avg_speed="26.8741031663062" min_speed="21.910332432854" max_speed="28.757088705136" stdev_speed="1.7412337102298359" travelrate="0.620188137883481" congestion_index="0.03370891404590511"/>
<edge id=":322708913_1" speed="27.78" length="7.96" avg_speed="27.249369863739826" min_speed="22.697257539542" max_speed="30.089607136199" stdev_speed="1.5582518693094354" travelrate="0.6116471714150877" congestion_index="0.019473115852351296"/>
<edge id=":325686453#5-AddedOnRampNode_0" speed="27.78" length="8.2" avg_speed="27.508205913404716" min_speed="22.711751376601" max_speed="31.588026711995" stdev_speed="1.5840137083318389" travelrate="0.6058919310284133" congestion_index="0.009880473028698794"/>
<edge id=":2801380603_0" speed="27.78" length="8.0" avg_speed="27.176804266103524" min_speed="22.712006366778" max_speed="28.247993920858" stdev_speed="1.2587531416064126" travelrate="0.6132803488152595" congestion_index="0.022195241500444447"/>
<edge id="4258491" speed="22.22" length="90.55" avg_speed="25.986841815977716" min_speed="23.254042838079" max_speed="27.7778" stdev_speed="2.2523905000241893" travelrate="0.641363045114335" congestion_index="-0.14495188921578453"/>
<edge id=":386696_2" speed="27.78" length="7.36" avg_speed="27.30282456256924" min_speed="23.835790063229" max_speed="32.858663057349" stdev_speed="1.9018310619791414" travelrate="0.6104496610526369" congestion_index="0.017477145499625323"/>
<edge id="128497195" speed="22.22" length="82.05" avg_speed="25.18898084845157" min_speed="22.906901977759" max_speed="27.7778" stdev_speed="2.426935638038956" travelrate="0.6616782195467255" congestion_index="-0.11786824033549909"/>
<edge id=":1003605848_1" speed="27.78" length="8.25" avg_speed="27.106460732459876" min_speed="22.444587372799" max_speed="31.257251680594" stdev_speed="1.7912821771899003" travelrate="0.6148718626346278" congestion_index="0.024847923680924065"/>
<edge id=":123965879#1-AddedOnRampNode_0" speed="27.78" length="8.2" avg_speed="26.87277326889664" min_speed="19.481986531844" max_speed="31.063166813252" stdev_speed="2.062478549980652" travelrate="0.6202188301603724" congestion_index="0.0337600709098906"/>
<edge id=":123969747-AddedOffRampNode_0" speed="27.78" length="1.6000000000000003" avg_speed="27.35728967887" min_speed="23.571955099521" max_speed="29.649747429799" stdev_speed="2.037689984964686" travelrate="0.6092343282409706" congestion_index="0.015451469282664011"/>
<edge id=":327268097#1-AddedOnRampNode_0" speed="27.78" length="8.2" avg_speed="27.098354105453602" min_speed="23.22134484884" max_speed="30.039758953589" stdev_speed="1.3850117895791267" travelrate="0.6150558050551761" congestion_index="0.025154512775711946"/>
<edge id=":2801380406_0" speed="27.78" length="8.35" avg_speed="27.335545946491727" min_speed="22.672041222987" max_speed="29.762845356514" stdev_speed="1.454731280692651" travelrate="0.6097189363850647" congestion_index="0.016259197982666014"/>
<edge id=":15852406_1" speed="27.78" length="8.02" avg_speed="27.275789594170668" min_speed="22.737192646839" max_speed="31.594460204438" stdev_speed="1.7469301228586356" travelrate="0.6110547209809113" congestion_index="0.018485639218198634"/>
<edge id=":265579627_1" speed="27.78" length="8.0" avg_speed="27.564323270679857" min_speed="19.389387081515" max_speed="32.32583124582" stdev_speed="2.414107696891313" travelrate="0.6046584142963042" congestion_index="0.00782448845931064"/>
<edge id=":12659319_0" speed="27.78" length="8.32" avg_speed="27.67227650816453" min_speed="19.449911469575" max_speed="32.390636422674" stdev_speed="2.4812134605454332" travelrate="0.6022995612624249" congestion_index="0.0038928308555924553"/>
<edge id=":123961236#1-AddedOnRampNode_0" speed="27.78" length="8.2" avg_speed="27.501021195195083" min_speed="23.90346276206" max_speed="32.590724890149" stdev_speed="1.5953308552903909" travelrate="0.6060502219791032" congestion_index="0.010144307108627112"/>
<edge id=":38245579#1-AddedOnRampNode_0" speed="33.33" length="8.27" avg_speed="30.67810384338053" min_speed="26.861739738666" max_speed="39.572670022357" stdev_speed="3.706294674552241" travelrate="0.5432865109619958" congestion_index="0.08644263576908363"/>
<edge id=":gneJ22_1" speed="27.78" length="5.41" avg_speed="28.0171672546039" min_speed="24.733567449193" max_speed="32.593379895613" stdev_speed="1.814673865620546" travelrate="0.5948852661848321" congestion_index="-0.00846506902174151"/>
<edge id=":123969747-AddedOnRampNode_0" speed="27.78" length="1.63" avg_speed="26.857991602145106" min_speed="19.394253869551" max_speed="28.749071274813" stdev_speed="2.889169062809492" travelrate="0.6205601761625704" congestion_index="0.03432901504747129"/>
<edge id=":322707386_1" speed="27.78" length="8.0" avg_speed="27.00587563115736" min_speed="19.475193792279" max_speed="30.253217906224" stdev_speed="2.1878495827290703" travelrate="0.6171619919915081" congestion_index="0.0286650349507467"/>
<edge id=":322707390_1" speed="27.78" length="8.03" avg_speed="27.547421622830413" min_speed="23.36927376653" max_speed="30.712005818119" stdev_speed="1.256479763074773" travelrate="0.6050294008709305" congestion_index="0.008442836514936655"/>
<edge id=":32015714#0-AddedOffRampNode_0" speed="33.33" length="8.27" avg_speed="29.824127278260452" min_speed="23.373714588191" max_speed="37.407185167215" stdev_speed="3.256741379446803" travelrate="0.5588428403787357" congestion_index="0.1175515611581722"/>
<edge id=":12531986_0" speed="27.78" length="7.349999999999999" avg_speed="27.474933527313862" min_speed="21.961572294444" max_speed="30.709942763319" stdev_speed="1.9021999365867306" travelrate="0.6066256714845447" congestion_index="0.011103447161495875"/>
<edge id=":322702830_0" speed="22.23" length="8.34" avg_speed="27.7778" min_speed="27.7778" max_speed="27.7778" stdev_speed="" travelrate="0.6000115199907841" congestion_index="-0.19972064022348773"/>
<edge id="128497230#0" speed="16.67" length="152.36" avg_speed="27.777800000000003" min_speed="27.7778" max_speed="27.7778" stdev_speed="0.0" travelrate="0.6000115199907841" congestion_index="-0.39988048009561583"/>
<edge id="128497230#1-AddedOnRampEdge" speed="16.67" length="91.66" avg_speed="23.784707944303538" min_speed="18.350151295054" max_speed="27.901213301291" stdev_speed="3.285926456578102" travelrate="0.7007443622612052" congestion_index="-0.29912950627621715"/>
<edge id="128497230#1" speed="16.67" length="601.54" avg_speed="25.87827472864861" min_speed="18.346841545764" max_speed="27.911774234601" stdev_speed="3.7748529933618404" travelrate="0.6440537545398557" congestion_index="-0.35583031810287435"/>
<edge id=":244659611_1" speed="33.33" length="8.13" avg_speed="30.215888475971575" min_speed="27.686689409045" max_speed="36.566220295681" stdev_speed="3.0807373539520495" travelrate="0.5515972172472775" congestion_index="0.10306205381002917"/>
<edge id="123960426" speed="27.78" length="399.84" avg_speed="26.34733735001991" min_speed="24.957347265717" max_speed="27.7778" stdev_speed="1.4081092423852095" travelrate="0.6325876417256793" congestion_index="0.05437599370848791"/>
<edge id=":15852406_0" speed="25.0" length="7.93" avg_speed="28.673961611326" min_speed="28.673961611326" max_speed="28.673961611326" stdev_speed="" travelrate="0.58125906095294" congestion_index="-0.1281288459936702"/>
<edge id="58670754" speed="16.67" length="108.53" avg_speed="20.949048272441402" min_speed="14.986570103264" max_speed="27.7778" stdev_speed="6.182455910202847" travelrate="0.795597001985314" congestion_index="-0.20425979341842057"/>
<edge id="27352484#0" speed="27.78" length="170.52" avg_speed="27.777800000000003" min_speed="27.7778" max_speed="27.7778" stdev_speed="0.0" travelrate="0.6000115199907841" congestion_index="7.91999366400187e-05"/>
<edge id="496431115" speed="13.89" length="27.71" avg_speed="27.7778" min_speed="27.7778" max_speed="27.7778" stdev_speed="" travelrate="0.6000115199907841" congestion_index="-0.49996040003167996"/>
<edge id="-275503318#2" speed="13.89" length="64.49" avg_speed="27.7778" min_speed="27.7778" max_speed="27.7778" stdev_speed="0.0" travelrate="0.6000115199907841" congestion_index="-0.49996040003167996"/>
<edge id="24644789" speed="22.22" length="382.92" avg_speed="22.859706395714483" min_speed="22.736814317482" max_speed="24.825979647434" stdev_speed="0.506697019104145" travelrate="0.7290994779847466" congestion_index="-0.0279840162704106"/>
<edge id=":243050307_0" speed="25.0" length="7.91" avg_speed="27.77780000074" min_speed="27.77780000074" max_speed="27.77780000074" stdev_speed="" travelrate="0.6000115199747997" congestion_index="-0.1000007200234"/>
<edge id="22661030" speed="22.22" length="100.63" avg_speed="27.777800000016" min_speed="27.777799999946" max_speed="27.77780000015" stdev_speed="1.1608517150602245e-10" travelrate="0.6000115199904384" congestion_index="-0.20008063993594882"/>
<edge id=":243050272_1" speed="7.43" length="3.77" avg_speed="27.777799999988" min_speed="27.777799999988" max_speed="27.777799999988" stdev_speed="" travelrate="0.6000115199910432" congestion_index="-0.7325202139837134"/>
<edge id="22661031#0" speed="22.22" length="498.05" avg_speed="27.77780000000036" min_speed="27.7778" max_speed="27.777800000003" stdev_speed="8.622708172661484e-13" travelrate="0.6000115199907763" congestion_index="-0.20008063993549852"/>
<edge id=":265579627_0" speed="27.78" length="8.0" avg_speed="27.7778" min_speed="27.7778" max_speed="27.7778" stdev_speed="" travelrate="0.6000115199907841" congestion_index="7.919993664003575e-05"/>
<edge id="123966730" speed="27.78" length="345.44" avg_speed="27.7778" min_speed="27.7778" max_speed="27.7778" stdev_speed="0.0" travelrate="0.6000115199907841" congestion_index="7.919993664012852e-05"/>
<edge id="58738830" speed="16.67" length="76.3" avg_speed="27.777800000000003" min_speed="27.7778" max_speed="27.7778" stdev_speed="0.0" travelrate="0.6000115199907841" congestion_index="-0.39988048009561594"/>
<edge id=":12659319_3" speed="27.78" length="8.33" avg_speed="25.049634652196" min_speed="25.049634652196" max_speed="25.049634652196" stdev_speed="" travelrate="0.6653590054870869" congestion_index="0.10899821038166861"/>
<edge id="123960179" speed="27.78" length="397.91" avg_speed="27.139450386818442" min_speed="25.841286936425" max_speed="27.7778" stdev_speed="0.898266668490165" travelrate="0.6141244484484888" congestion_index="0.02360215863076854"/>
<edge id="58670761" speed="16.67" length="109.99" avg_speed="23.232230131641668" min_speed="15.502343565556" max_speed="27.7778" stdev_speed="5.694758438455611" travelrate="0.7174085271004612" congestion_index="-0.28246234194727976"/>
<edge id="22907436" speed="22.22" length="35.86" avg_speed="22.3304155352945" min_speed="20.223620744849" max_speed="24.43721032574" stdev_speed="" travelrate="0.746381095043075" congestion_index="-0.004944625196068643"/>
<edge id=":246635768_1" speed="19.45" length="8.36" avg_speed="19.32151076746" min_speed="19.32151076746" max_speed="19.32151076746" stdev_speed="" travelrate="0.8626137055529556" congestion_index="0.006650061379071336"/>
<edge id="-123961980" speed="16.67" length="110.07" avg_speed="15.178066198154141" min_speed="15.112011049952" max_speed="15.223381682272" stdev_speed="0.0453076145760825" travelrate="1.098097727497521" congestion_index="0.09829538113539786"/>
<edge id=":gneJ22_0" speed="27.78" length="4.85" avg_speed="27.7778" min_speed="27.7778" max_speed="27.7778" stdev_speed="" travelrate="0.6000115199907841" congestion_index="7.919993664006953e-05"/>
<edge id="22780363" speed="22.22" length="330.45" avg_speed="23.295941590915213" min_speed="22.606630571383" max_speed="29.722381264263" stdev_speed="1.969108109130901" travelrate="0.71544650534751" congestion_index="-0.04618579535479277"/>
<edge id="24644790" speed="22.22" length="403.12" avg_speed="24.802191490879252" min_speed="20.581127802007" max_speed="27.910308179487" stdev_speed="2.947074727712715" travelrate="0.6719970695383558" congestion_index="-0.1041114246629709"/>
<edge id="-22907450" speed="16.67" length="91.68" avg_speed="18.197052815455383" min_speed="16.340466866436" max_speed="21.900152951096" stdev_speed="1.7901716911821712" travelrate="0.9159175482440841" congestion_index="-0.08391758989446911"/>
<edge id="-22661031#2" speed="22.22" length="501.37" avg_speed="23.87324250330358" min_speed="22.190069571577" max_speed="27.911921136316" stdev_speed="1.571744682065153" travelrate="0.6981456330321959" congestion_index="-0.06925085702433614"/>
<edge id=":2801380731_1" speed="15.61" length="3.53" avg_speed="21.7128206038685" min_speed="21.3155526762" max_speed="22.110088531537" stdev_speed="" travelrate="0.7676110029219556" congestion_index="-0.28106991326503117"/>
<edge id=":1003605767_0" speed="6.6" length="7.19" avg_speed="7.346213068349856" min_speed="2.339982567109" max_speed="11.406628002038" stdev_speed="3.404302996133167" travelrate="2.268787992524675" congestion_index="-0.1015779234017609"/>
<edge id="275503318#0" speed="13.89" length="66.11" avg_speed="14.627682180558145" min_speed="12.983790199458" max_speed="16.602129644713" stdev_speed="1.3314192747258862" travelrate="1.1394149663815052" congestion_index="-0.0504305584064855"/>
<edge id="8296126#0" speed="13.89" length="79.06" avg_speed="15.2322096406491" min_speed="13.869479535611" max_speed="18.147152056001" stdev_speed="1.2969713222133143" travelrate="1.0941944992354873" congestion_index="-0.08811654200630487"/>
<edge id=":322702833_0" speed="18.18" length="8.59" avg_speed="24.54476772873" min_speed="24.54476772873" max_speed="24.54476772873" stdev_speed="" travelrate="0.6790449265686487" congestion_index="-0.2593126078467611"/>
<edge id="398588970" speed="16.67" length="125.46" avg_speed="17.643392633652727" min_speed="15.518222026801" max_speed="21.685929543206" stdev_speed="1.7961483209112363" travelrate="0.9446595870801873" congestion_index="-0.055170377594844895"/>
<edge id="29334729" speed="13.89" length="572.15" avg_speed="18.60263370869687" min_speed="12.674361991181" max_speed="27.900183023903" stdev_speed="6.3787015582352025" travelrate="0.8959484049942914" congestion_index="-0.25333153264710456"/>
<edge id="123960508" speed="16.67" length="90.92" avg_speed="16.457931940746285" min_speed="13.700296352074" max_speed="20.027929788879" stdev_speed="2.0969008352299268" travelrate="1.0127031792333585" congestion_index="0.012885462159961973"/>
<edge id="123959660" speed="16.67" length="67.71" avg_speed="18.831064645198204" min_speed="16.24549124237" max_speed="21.068740454967" stdev_speed="1.8379147791850365" travelrate="0.8850800692381445" congestion_index="-0.11476061953561723"/>
<edge id="123967087" speed="16.67" length="140.82" avg_speed="17.00672399510625" min_speed="15.10234506849" max_speed="20.623439212861" stdev_speed="1.6331127167963055" travelrate="0.9800241366177281" congestion_index="-0.019799462565697118"/>
<edge id="58738827" speed="27.78" length="64.83" avg_speed="20.605897703140563" min_speed="15.515869114187" max_speed="27.627317111357" stdev_speed="2.887566999713132" travelrate="0.8088461002822396" congestion_index="0.34815771679610086"/>
<edge id="-128497195" speed="22.22" length="84.26" avg_speed="22.491062613434618" min_speed="19.788511691782" max_speed="26.366121480807" stdev_speed="2.3851274015171664" travelrate="0.7410499133128676" congestion_index="-0.01205201453099441"/>
<edge id="128052719" speed="22.22" length="158.98" avg_speed="21.95927948427563" min_speed="21.059112098563" max_speed="24.061372795084" stdev_speed="1.2942231156148638" travelrate="0.7589957590336573" congestion_index="0.011872908485502163"/>
<edge id="123961980" speed="16.67" length="115.17" avg_speed="15.4488364971762" min_speed="11.227319330129" max_speed="18.373051668056" stdev_speed="1.866348749397886" travelrate="1.0788514722805476" congestion_index="0.07904566166177053"/>
<edge id=":2801380497_0" speed="27.78" length="8.35" avg_speed="21.4383263790952" min_speed="19.474711846447" max_speed="22.693673299573" stdev_speed="1.6015160888006696" travelrate="0.7774394187902753" congestion_index="0.2958101070374901"/>
<edge id="86382102" speed="22.22" length="12.72" avg_speed="9.188420084247788" min_speed="6.3053343999384" max_speed="11.42461976618" stdev_speed="1.9071673552627633" travelrate="1.8139135833126692" congestion_index="1.418261224047969"/>
<edge id="65596457" speed="27.78" length="316.1" avg_speed="25.34318013954437" min_speed="17.38537522256" max_speed="27.912382843144" stdev_speed="3.089130944506107" travelrate="0.6576522720601097" congestion_index="0.09615288401211058"/>
<edge id="25508818" speed="22.22" length="163.29" avg_speed="19.83062180850851" min_speed="10.746665386499" max_speed="27.849650588657" stdev_speed="3.5956390719954263" travelrate="0.8404678461897181" congestion_index="0.12048932275367694"/>
<edge id="23565360#0" speed="27.78" length="507.68" avg_speed="26.61826512580258" min_speed="16.601537844533" max_speed="29.89237016378" stdev_speed="2.544592529741446" travelrate="0.6261489966092396" congestion_index="0.04364427466278724"/>
<edge id="58738831" speed="27.78" length="255.47" avg_speed="24.48611898810806" min_speed="15.197404550977" max_speed="28.478169379545" stdev_speed="3.3889424261450825" travelrate="0.6806713635629437" congestion_index="0.13452033837994692"/>
<edge id="29334378" speed="22.22" length="101.35" avg_speed="22.12253435995168" min_speed="21.059097959994" max_speed="26.424811138087" stdev_speed="1.4505059458926242" travelrate="0.7533946937911505" congestion_index="0.004405717648008848"/>
<edge id="123961786" speed="16.67" length="55.12" avg_speed="18.955196274733165" min_speed="16.320014359304" max_speed="24.899556583354" stdev_speed="2.6426655237261003" travelrate="0.8792839577301936" congestion_index="-0.1205577743227739"/>
<edge id="22661029" speed="22.22" length="24.99" avg_speed="24.550942010611497" min_speed="21.329753075952" max_speed="27.77289502738" stdev_speed="2.614603611064687" travelrate="0.6788741545149726" congestion_index="-0.0949430783390718"/>
<edge id=":2801380794_0" speed="6.6" length="9.23" avg_speed="13.866281188340816" min_speed="7.1391600681109" max_speed="18.098950536556" stdev_speed="3.751506867636038" travelrate="1.2019805291424577" congestion_index="-0.5240252299549877"/>
<edge id="27352485" speed="22.22" length="128.63" avg_speed="22.52857274845486" min_speed="19.933317504643" max_speed="27.909907414321" stdev_speed="2.7258990009403736" travelrate="0.7398160631877189" congestion_index="-0.013696950619121013"/>
<edge id="275503308#0" speed="13.89" length="192.87" avg_speed="14.97226905576953" min_speed="6.8290485294476" max_speed="27.906589014428" stdev_speed="3.7367097426649956" travelrate="1.113191323099915" congestion_index="-0.07228490563041809"/>
<edge id=":17955715_0" speed="7.91" length="3.97" avg_speed="14.445361096126467" min_speed="9.7281100182744" max_speed="19.643972947844" stdev_speed="4.975426168225735" travelrate="1.153796010296293" congestion_index="-0.4524193651260769"/>
<edge id="58670760" speed="27.78" length="425.88" avg_speed="25.400351192314265" min_speed="14.51946136901" max_speed="31.210392559873" stdev_speed="3.7215835125749694" travelrate="0.6561720298199328" congestion_index="0.09368566559055203"/>
<edge id="25750596" speed="22.22" length="110.24" avg_speed="18.35175703008583" min_speed="9.0510794267714" max_speed="25.643361024414" stdev_speed="3.732558111035948" travelrate="0.9081964180691885" congestion_index="0.2107832489048639"/>
<edge id=":246635791_1" speed="10.54" length="4.15" avg_speed="17.5835745816245" min_speed="16.285915998829" max_speed="18.88123316442" stdev_speed="" travelrate="0.9478732508359049" congestion_index="-0.4005769446324812"/>
<edge id="496427591" speed="27.78" length="104.92" avg_speed="23.96753298692308" min_speed="16.618927030039" max_speed="27.906943969272" stdev_speed="3.5211455845526887" travelrate="0.6953990637707135" congestion_index="0.1590679781334626"/>
<edge id=":277956416_3" speed="25.0" length="8.36" avg_speed="21.319776362583667" min_speed="18.813275593886" max_speed="22.710363783053" stdev_speed="2.175033571948226" travelrate="0.7817624217320912" congestion_index="0.17262018019453285"/>
<edge id="275503308#1-AddedOnRampEdge" speed="13.89" length="100.06" avg_speed="15.51142389807746" min_speed="13.002546330512" max_speed="27.830301337772" stdev_speed="3.834771483080783" travelrate="1.0744983896717417" congestion_index="-0.10453095142854199"/>
<edge id=":275503308#1-AddedOnRampNode_0" speed="13.89" length="1.6" avg_speed="27.774162937521" min_speed="27.774162937521" max_speed="27.774162937521" stdev_speed="" travelrate="0.6000900922736367" congestion_index="-0.49989491920076706"/>
<edge id="275503308#1" speed="13.89" length="100.81" avg_speed="15.44199378403576" min_speed="12.987630016903" max_speed="27.778229006379" stdev_speed="3.8022956418157663" travelrate="1.0793295369170965" congestion_index="-0.10050475383821508"/>
<edge id="42872148#0" speed="22.22" length="21.82" avg_speed="16.974574118663668" min_speed="13.525390001616" max_speed="27.777837838591" stdev_speed="4.267034967508485" travelrate="0.9818803042413013" congestion_index="0.3090166412816772"/>
<edge id="42872148#1-AddedOnRampEdge" speed="22.22" length="92.03" avg_speed="22.025141419748657" min_speed="17.692899276157" max_speed="27.7778011693" stdev_speed="3.0803080825205202" travelrate="0.7567261286711048" congestion_index="0.008847097802360726"/>
<edge id="123959844" speed="27.78" length="299.11" avg_speed="25.229682661958797" min_speed="13.470230698883" max_speed="31.353105631862" stdev_speed="4.305527930396128" travelrate="0.6606107664259459" congestion_index="0.10108400379869081"/>
<edge id="42872148#1" speed="22.22" length="42.82" avg_speed="23.443398696891368" min_speed="20.951621623432" max_speed="27.777801047074" stdev_speed="2.2775518097100353" travelrate="0.7109464039533684" congestion_index="-0.05218521054515835"/>
<edge id=":2801380406_3" speed="25.0" length="8.38" avg_speed="24.111089482958004" min_speed="21.149987104283" max_speed="27.77780026765" stdev_speed="3.3697758455283955" travelrate="0.6912586845891152" congestion_index="0.03686728953788202"/>
<edge id=":12659312_0" speed="27.78" length="13.66" avg_speed="28.220279552964502" min_speed="25.511582241723" max_speed="31.266260711733" stdev_speed="1.9076851936559607" travelrate="0.5906036461729224" congestion_index="-0.015601530528362528"/>
<edge id="128497436" speed="16.67" length="146.23" avg_speed="17.64713653645517" min_speed="13.946872817164" max_speed="25.055129497127" stdev_speed="2.9551277446975694" travelrate="0.9444591741878112" congestion_index="-0.05537082656082013"/>
<edge id="450622727" speed="27.78" length="16.23" avg_speed="18.99488904678325" min_speed="17.4159224811" max_speed="21.06983615832" stdev_speed="1.5285004593694456" travelrate="0.8774465572791819" congestion_index="0.46249867169950626"/>
<edge id="123960478" speed="22.22" length="204.65" avg_speed="22.96330791728401" min_speed="20.158471122734" max_speed="27.470094977678" stdev_speed="2.453878055667455" travelrate="0.7258100644748614" congestion_index="-0.03236937465462188"/>
<edge id=":246635768_0" speed="8.97" length="4.33" avg_speed="17.061426728088" min_speed="17.061426728088" max_speed="17.061426728088" stdev_speed="" travelrate="0.976881961023889" congestion_index="-0.4742526435240725"/>
<edge id=":243049815_0" speed="27.78" length="8.15" avg_speed="23.343283572648197" min_speed="20.485496227538" max_speed="27.910006177174" stdev_speed="2.8710537585710694" travelrate="0.7139955245854558" congestion_index="0.19006393910025543"/>
<edge id=":26941093_3" speed="25.0" length="7.39" avg_speed="24.009193752499" min_speed="21.563923239827" max_speed="26.454464265171" stdev_speed="" travelrate="0.694192406950992" congestion_index="0.041267785070786496"/>
<edge id="22907453" speed="16.67" length="17.08" avg_speed="20.8469541084766" min_speed="15.396603799897" max_speed="26.399543190661" stdev_speed="4.777616064746448" travelrate="0.7994932935177814" congestion_index="-0.20036280056750366"/>
<edge id=":17955717_3" speed="25.0" length="8.28" avg_speed="25.296065515389" min_speed="24.224124927633" max_speed="27.077665082518" stdev_speed="1.553507243027474" travelrate="0.6588771676710174" congestion_index="-0.011704014413185583"/>
<edge id=":322707386_0" speed="25.0" length="7.98" avg_speed="25.8644904145165" min_speed="24.159120992022" max_speed="27.569859837011" stdev_speed="" travelrate="0.6443969988539041" congestion_index="-0.03342383324247924"/>
<edge id=":2801380642_0" speed="22.22" length="8.4" avg_speed="17.193266472031" min_speed="17.109085555274" max_speed="17.277447388788" stdev_speed="" travelrate="0.9693911292024063" congestion_index="0.2923664061245254"/>
<edge id="-86382126" speed="22.22" length="38.99" avg_speed="16.945040219242" min_speed="16.945040219242" max_speed="16.945040219242" stdev_speed="" travelrate="0.9835916459539431" congestion_index="0.31129815642266806"/>
<edge id="-86382092" speed="27.78" length="8.68" avg_speed="2.3399833690219" min_speed="2.3399833690219" max_speed="2.3399833690219" stdev_speed="" travelrate="7.122700195500413" congestion_index="10.871879248275121"/>
<edge id=":1003605848_0" speed="25.0" length="8.35" avg_speed="11.937301535941" min_speed="11.347359239002" max_speed="12.564634442615" stdev_speed="0.6576520067409408" travelrate="1.3962116940598976" congestion_index="1.094275655576735"/>
<edge id=":2801380637_3" speed="25.0" length="8.41" avg_speed="24.711102426914003" min_speed="21.645359297352" max_speed="27.776845556476" stdev_speed="" travelrate="0.6744741578929803" congestion_index="0.011691003019409658"/>
<edge id=":322704639_0" speed="13.89" length="4.76" avg_speed="13.59825097484" min_speed="13.088463683621" max_speed="14.108038266059" stdev_speed="" travelrate="1.2256723332168173" congestion_index="0.02145489340502739"/>
<edge id=":12531986_3" speed="27.78" length="7.98" avg_speed="27.133274145604" min_speed="26.488747582352" max_speed="27.777800708856" stdev_speed="" travelrate="0.6142642391979926" congestion_index="0.023835157192069967"/>
<edge id=":128497230#1-AddedOnRampNode_0" speed="16.67" length="8.4" avg_speed="26.883754672172998" min_speed="25.933661821168" max_speed="27.833847523178" stdev_speed="" travelrate="0.6199654848528945" congestion_index="-0.3799229235916631"/>
<edge id=":277957166_3" speed="27.78" length="8.16" avg_speed="22.948310650962" min_speed="22.948310650962" max_speed="22.948310650962" stdev_speed="" travelrate="0.7262843985991325" congestion_index="0.21054662465254087"/>
<edge id=":386703_0" speed="27.77" length="8.23" avg_speed="25.983178131383" min_speed="25.983178131383" max_speed="25.983178131383" stdev_speed="" travelrate="0.6414534786977912" congestion_index="0.06876841083804282"/>
<edge id=":243050272_0" speed="19.08" length="5.05" avg_speed="22.948240370304" min_speed="22.948240370304" max_speed="22.948240370304" stdev_speed="" travelrate="0.7262866228980157" congestion_index="-0.16856370283229513"/>
<edge id=":42872148#1-AddedOnRampNode_0" speed="22.22" length="8.4" avg_speed="21.823029513951" min_speed="21.823029513951" max_speed="21.823029513951" stdev_speed="" travelrate="0.763734475515654" congestion_index="0.01819043894869069"/>
<edge id="192556113" speed="22.22" length="33.1" avg_speed="25.644770715701" min_speed="25.644770715701" max_speed="25.644770715701" stdev_speed="" travelrate="0.6499180743228731" congestion_index="-0.133546552381698"/>
<edge id=":322708913_0" speed="27.78" length="8.1" avg_speed="27.772646415392" min_speed="27.772646415392" max_speed="27.772646415392" stdev_speed="" travelrate="0.6001228601233661" congestion_index="0.0002647779580676318"/>
<edge id="128497341#0" speed="27.78" length="469.51" avg_speed="27.777800000000006" min_speed="27.7778" max_speed="27.7778" stdev_speed="0.0" travelrate="0.600011519990784" congestion_index="7.919993663979956e-05"/>
</interval>
</meandata>
